tb_int/report/wave/PROF/P041/sim/P041.vcd
$date
	Fri Apr 24 09:03:50 2026
$end
$version
	QuestaSim Version 2026.1_1
$end
$timescale
	1ps
$end

$scope module tb_top $end
$var reg 1 ! clk $end

$scope module feb_if0 $end
$var wire 1 " clk $end
$var reg 1 # valid $end
$var reg 32 $ data [31:0] $end
$var reg 4 % datak [3:0] $end
$upscope $end

$scope module feb_if1 $end
$var wire 1 & clk $end
$var reg 1 ' valid $end
$var reg 32 ( data [31:0] $end
$var reg 4 ) datak [3:0] $end
$upscope $end

$scope module feb_if2 $end
$var wire 1 * clk $end
$var reg 1 + valid $end
$var reg 32 , data [31:0] $end
$var reg 4 - datak [3:0] $end
$upscope $end

$scope module feb_if3 $end
$var wire 1 . clk $end
$var reg 1 / valid $end
$var reg 32 0 data [31:0] $end
$var reg 4 1 datak [3:0] $end
$upscope $end

$scope module opq_if $end
$var wire 1 2 clk $end
$var reg 1 3 valid $end
$var reg 32 4 data [31:0] $end
$var reg 4 5 datak [3:0] $end
$upscope $end

$scope module dma_if $end
$var wire 1 6 clk $end
$var reg 256 7 data [255:0] $end
$var reg 1 8 wren $end
$var reg 1 9 end_of_event $end
$upscope $end

$scope module ctrl_if $end
$var wire 1 : clk $end
$var reg 1 ; reset_n $end
$var reg 4 < feb_enable_mask [3:0] $end
$var reg 1 = use_merge $end
$var reg 1 > enable_dma $end
$var reg 32 ? get_n_words [31:0] $end
$var reg 32 @ lookup_ctrl [31:0] $end
$var reg 1 A dma_half_full $end
$var reg 1 B dma_done $end
$upscope $end
$upscope $end
$enddefinitions $end
#0
$dumpvars
0!
0#
b0 $
b0 %
0'
b0 (
b0 )
0+
b0 ,
b0 -
0/
b0 0
b0 1
b1111111111111111111111111111111111111111111111111111111111111111111111111111111111111111111111111111111111111111111111111111111111111111111111111111111111111111111111111111111111111111111111111111111111111111111111111111111111111111111111111111111111111111 7
08
09
03
b10111100 4
b1 5
0;
b1111 <
1=
0>
b0 ?
b0 @
0A
0B
0"
0&
0*
0.
06
02
0:
$end
#2000
1!
1"
1&
1*
1.
16
12
1:
#4000
0!
0"
0&
0*
0.
06
02
0:
#6000
1!
1"
1&
1*
1.
16
12
1:
#8000
0!
0"
0&
0*
0.
06
02
0:
#10000
1!
1"
1&
1*
1.
16
12
1:
#12000
0!
0"
0&
0*
0.
06
02
0:
#14000
1!
1"
1&
1*
1.
16
12
1:
#16000
0!
0"
0&
0*
0.
06
02
0:
#18000
1!
1"
1&
1*
1.
16
12
1:
#20000
0!
0"
0&
0*
0.
06
02
0:
#22000
1!
1"
1&
1*
1.
16
12
1:
#24000
0!
0"
0&
0*
0.
06
02
0:
#26000
1!
1"
1&
1*
1.
16
12
1:
#28000
0!
0"
0&
0*
0.
06
02
0:
#30000
1!
1"
1&
1*
1.
16
12
1:
#32000
0!
0"
0&
0*
0.
06
02
0:
#34000
1!
1"
1&
1*
1.
16
12
1:
#36000
0!
0"
0&
0*
0.
06
02
0:
#38000
1!
1"
1&
1*
1.
16
12
1:
#40000
0!
0"
0&
0*
0.
06
02
0:
#42000
1!
1"
1&
1*
1.
16
12
1:
#44000
0!
0"
0&
0*
0.
06
02
0:
#46000
1!
1"
1&
1*
1.
16
12
1:
#48000
0!
0"
0&
0*
0.
06
02
0:
#50000
1!
1"
1&
1*
1.
16
12
1:
#52000
0!
0"
0&
0*
0.
06
02
0:
#54000
1!
1"
1&
1*
1.
16
12
1:
#56000
0!
0"
0&
0*
0.
06
02
0:
#58000
1!
1"
1&
1*
1.
16
12
1:
#60000
0!
0"
0&
0*
0.
06
02
0:
#62000
1!
1"
1&
1*
1.
16
12
1:
1;
#64000
0!
0"
0&
0*
0.
06
02
0:
#66000
1!
1"
1&
1*
1.
16
12
1:
b100111000 ?
#68000
0!
0"
0&
0*
0.
06
02
0:
#70000
1!
1"
1&
1*
1.
16
12
1:
1>
#72000
0!
0"
0&
0*
0.
06
02
0:
#74000
1!
1"
1&
1*
1.
16
12
1:
bx 7
1#
b11101000000000000000000010111100 $
b1 %
1'
b11101000000000000000000110111100 (
b1 )
1+
b11101000000000000000001010111100 ,
b1 -
1/
b11101000000000000000001110111100 0
b1 1
1A
#76000
0!
0"
0&
0*
0.
06
02
0:
#78000
1!
1"
1&
1*
1.
16
12
1:
b0 $
b0 %
b0 (
b0 )
b0 ,
b0 -
b0 0
b0 1
0A
#80000
0!
0"
0&
0*
0.
06
02
0:
#82000
1!
1"
1&
1*
1.
16
12
1:
#84000
0!
0"
0&
0*
0.
06
02
0:
#86000
1!
1"
1&
1*
1.
16
12
1:
b100000000000000001100100 $
b100000000000000001011010 (
b100000000000000001100101 ,
b100000000000000001100111 0
1A
#88000
0!
0"
0&
0*
0.
06
02
0:
#90000
1!
1"
1&
1*
1.
16
12
1:
b100000000000 $
b100000000000 (
b100000000000 ,
b100000000000 0
#92000
0!
0"
0&
0*
0.
06
02
0:
#94000
1!
1"
1&
1*
1.
16
12
1:
b11110111 $
b1 %
b111110111 (
b1 )
b11110111 ,
b1 -
b11110111 0
b1 1
0A
#96000
0!
0"
0&
0*
0.
06
02
0:
#98000
1!
1"
1&
1*
1.
16
12
1:
b1000000000000000111110111 $
b10000010000000000010001000000 (
b0 )
b1000000000000000011110111 ,
b1000000000000000011110111 0
1A
#100000
0!
0"
0&
0*
0.
06
02
0:
#102000
1!
1"
1&
1*
1.
16
12
1:
b1100000001000000 $
b0 %
b1000000000000000011110111 (
b1 )
b10000000000000000011110111 ,
b10000000000000000111110111 0
#104000
0!
0"
0&
0*
0.
06
02
0:
#106000
1!
1"
1&
1*
1.
16
12
1:
b10000000000000000011110111 $
b1 %
b10000000000000000011110111 (
b11000000000000000011110111 ,
b110000110000011000110101000000 0
b0 1
#108000
0!
0"
0&
0*
0.
06
02
0:
#110000
1!
1"
1&
1*
1.
16
12
1:
b11000000000000000011110111 $
b11000000000000000111110111 (
b100000000000000001011110111 ,
b11000000000000000011110111 0
b1 1
0A
#112000
0!
0"
0&
0*
0.
06
02
0:
#114000
1!
1"
1&
1*
1.
16
12
1:
b100000000000000001011110111 $
b10000010000100100010100000000 (
b0 )
b100000100000110000100110000000 ,
b0 -
b100000000000000000111110111 0
#116000
0!
0"
0&
0*
0.
06
02
0:
#118000
1!
1"
1&
1*
1.
16
12
1:
b110000000100000000 $
b0 %
b100000000000000000011110111 (
b1 )
b1100000100000110100101101000010 ,
b110000110000110000110111000000 0
b0 1
1A
#120000
0!
0"
0&
0*
0.
06
02
0:
#122000
1!
1"
1&
1*
1.
16
12
1:
b1000000000000110100001011000010 $
b101000000000000000011110111 (
b101000000000000001011110111 ,
b1 -
b101000000000000001011110111 0
b1 1
0A
#124000
0!
0"
0&
0*
0.
06
02
0:
#126000
1!
1"
1&
1*
1.
16
12
1:
b101000000000000000111110111 $
b1 %
b110000000000000000011110111 (
b100000100000111100100111000000 ,
b0 -
b110000110000111100111000000000 0
b0 1
#128000
0!
0"
0&
0*
0.
06
02
0:
#130000
1!
1"
1&
1*
1.
16
12
1:
b111100000101000000 $
b0 %
b111000000000000000111110111 (
b1100000100001000000101110000010 ,
b1110000110001000000111111000010 0
1A
#132000
0!
0"
0&
0*
0.
06
02
0:
#134000
1!
1"
1&
1*
1.
16
12
1:
b110000000000000000011110111 $
b1 %
b10000010001010100011000000000 (
b0 )
b110000000000000001111110111 ,
b1 -
b110000000000000000111110111 0
b1 1
#136000
0!
0"
0&
0*
0.
06
02
0:
#138000
1!
1"
1&
1*
1.
16
12
1:
b111000000000000000011110111 $
b1000000000000000000111110111 (
b1 )
b100000100001001000101000000000 ,
b0 -
b110000110001001000111001000000 0
b0 1
#140000
0!
0"
0&
0*
0.
06
02
0:
#142000
1!
1"
1&
1*
1.
16
12
1:
b1000000000000000000111110111 $
b10000010001100000011001000000 (
b0 )
b1100000100001001100101111000010 ,
b111000000000000000111110111 0
b1 1
#144000
0!
0"
0&
0*
0.
06
02
0:
#146000
1!
1"
1&
1*
1.
16
12
1:
b1100000001000000000 $
b0 %
b1001000000000000001011110111 (
b1 )
b10100000100001010000110110000100 ,
b110000110001010100111010000000 0
b0 1
#148000
0!
0"
0&
0*
0.
06
02
0:
#150000
1!
1"
1&
1*
1.
16
12
1:
b1001000000000000000011110111 $
b1 %
b10000010001101100011010000000 (
b0 )
b111000000000000000011110111 ,
b1 -
b1000000000000000001111110111 0
b1 1
#152000
0!
0"
0&
0*
0.
06
02
0:
#154000
1!
1"
1&
1*
1.
16
12
1:
b1010000000000000001011110111 $
b1010000010001110000100001000010 (
b1000000000000000000011110111 ,
b110000110001100000111011000000 0
b0 1
#156000
0!
0"
0&
0*
0.
06
02
0:
#158000
1!
1"
1&
1*
1.
16
12
1:
b1111000001010000000 $
b0 %
b1010000000000000000011110111 (
b1 )
b1001000000000000000111110111 ,
b1110000110001100101000010000010 0
#160000
0!
0"
0&
0*
0.
06
02
0:
#162000
1!
1"
1&
1*
1.
16
12
1:
b1000000000001111100010001000010 $
b1011000000000000000111110111 (
b100000100001101100101011000000 ,
b0 -
b10110000110001101001001001000100 0
#164000
0!
0"
0&
0*
0.
06
02
0:
#166000
1!
1"
1&
1*
1.
16
12
1:
b1011000000000000000011110111 $
b1 %
b10000010010000100011100000000 (
b0 )
b1010000000000000000011110111 ,
b1 -
b1001000000000000000111110111 0
b1 1
#168000
0!
0"
0&
0*
0.
06
02
0:
#170000
1!
1"
1&
1*
1.
16
12
1:
b1100000000000000000011110111 $
b1100000000000000000111110111 (
b1 )
b1011000000000000000011110111 ,
b110000110001101100111100000000 0
b0 1
#172000
0!
0"
0&
0*
0.
06
02
0:
#174000
1!
1"
1&
1*
1.
16
12
1:
b1101000000000000000011110111 $
b10000010010010000011101000000 (
b0 )
b1100000000000000000011110111 ,
b1010000000000000001011110111 0
b1 1
#176000
0!
0"
0&
0*
0.
06
02
0:
#178000
1!
1"
1&
1*
1.
16
12
1:
b1110000000000000001111110111 $
b1101000000000000000011110111 (
b1 )
b1101000000000000001111110111 ,
b110000110001111000111101000000 0
b0 1
#180000
0!
0"
0&
0*
0.
06
02
0:
#182000
1!
1"
1&
1*
1.
16
12
1:
b10101000001110000000 $
b0 %
b1110000000000000000111110111 (
b100000100010011100101111000000 ,
b0 -
b1110000110001111101000100000010 0
#184000
0!
0"
0&
0*
0.
06
02
0:
#186000
1!
1"
1&
1*
1.
16
12
1:
b1000000000010101100010101000010 $
b10000010010101000011111000000 (
b0 )
b1100000100010100000110110000010 ,
b1011000000000000000011110111 0
b1 1
#188000
0!
0"
0&
0*
0.
06
02
0:
#190000
1!
1"
1&
1*
1.
16
12
1:
b10000000000010110000011100000100 $
b1111000000000000000011110111 (
b1 )
b10100000100010100100111101000100 ,
b1100000000000000000111110111 0
#192000
0!
0"
0&
0*
0.
06
02
0:
#194000
1!
1"
1&
1*
1.
16
12
1:
b1111000000000000001111110111 $
b1 %
b10000000000000000000111110111 (
b1110000000000000000111110111 ,
b1 -
b110000110010010000111111000000 0
b0 1
#196000
0!
0"
0&
0*
0.
06
02
0:
#198000
1!
1"
1&
1*
1.
16
12
1:
b10110100001111000000 $
b0 %
b10000010011000000100001000000 (
b0 )
b100000100010101000110000000000 ,
b0 -
b1101000000000000000011110111 0
b1 1
#200000
0!
0"
0&
0*
0.
06
02
0:
#202000
1!
1"
1&
1*
1.
16
12
1:
b1000000000010111000010110000010 $
b10001000000000000000011110111 (
b1 )
b1111000000000000000011110111 ,
b1 -
b1110000000000000001011110111 0
#204000
0!
0"
0&
0*
0.
06
02
0:
#206000
1!
1"
1&
1*
1.
16
12
1:
b10000000000010111100011101000100 $
b10010000000000000000011110111 (
b10000000000000000000011110111 ,
b110000110010101001000001000000 0
b0 1
0A
#208000
0!
0"
0&
0*
0.
06
02
0:
#210000
1!
1"
1&
1*
1.
16
12
1:
b10000000000000000000011110111 $
b1 %
b10011000000000000000011110111 (
b10001000000000000000111110111 ,
b1110000110010101101001000000010 0
1A
#212000
0!
0"
0&
0*
0.
06
02
0:
#214000
1!
1"
1&
1*
1.
16
12
1:
b10001000000000000000011110111 $
b10100000000000000000111110111 (
b100000100011001100110011000000 ,
b0 -
b1111000000000000000111110111 0
b1 1
#216000
0!
0"
0&
0*
0.
06
02
0:
#218000
1!
1"
1&
1*
1.
16
12
1:
b10010000000000000000111110111 $
b10000010011110000100101000000 (
b0 )
b10010000000000000000111110111 ,
b1 -
b110000110010110101000010000000 0
b0 1
#220000
0!
0"
0&
0*
0.
06
02
0:
#222000
1!
1"
1&
1*
1.
16
12
1:
b11011000010010000000 $
b0 %
b10101000000000000000111110111 (
b1 )
b100000100011011000110100000000 ,
b0 -
b10000000000000000000011110111 0
b1 1
#224000
0!
0"
0&
0*
0.
06
02
0:
#226000
1!
1"
1&
1*
1.
16
12
1:
b10011000000000000010011110111 $
b1 %
b10000010011111100100110000000 (
b0 )
b10011000000000000000111110111 ,
b1 -
b10001000000000000000011110111 0
#228000
0!
0"
0&
0*
0.
06
02
0:
#230000
1!
1"
1&
1*
1.
16
12
1:
b11100100010011000000 $
b0 %
b10110000000000000000111110111 (
b1 )
b100000100011100100110101000000 ,
b0 -
b10010000000000000001111110111 0
#232000
0!
0"
0&
0*
0.
06
02
0:
#234000
1!
1"
1&
1*
1.
16
12
1:
b1000000000011101000011010000010 $
b10000010100001000100111000000 (
b0 )
b10100000000000000000111110111 ,
b1 -
b110000110011011001000101000000 0
b0 1
#236000
0!
0"
0&
0*
0.
06
02
0:
#238000
1!
1"
1&
1*
1.
16
12
1:
b10000000000011101100100001000100 $
b10111000000000000001011110111 (
b1 )
b100000100011110000110110000000 ,
b0 -
b1110000110011011101001100000010 0
#240000
0!
0"
0&
0*
0.
06
02
0:
#242000
1!
1"
1&
1*
1.
16
12
1:
b11000000000011110000101000000110 $
b10000010100010100101000000000 (
b0 )
b10101000000000000000011110111 ,
b1 -
b10110000110011100001010011000100 0
#244000
0!
0"
0&
0*
0.
06
02
0:
#246000
1!
1"
1&
1*
1.
16
12
1:
b10100000000000000000011110111 $
b1 %
b1010000010100011000101111000010 (
b10110000000000000000011110111 ,
b10011000000000000001011110111 0
b1 1
#248000
0!
0"
0&
0*
0.
06
02
0:
#250000
1!
1"
1&
1*
1.
16
12
1:
b10101000000000000000011110111 $
b11000000000000000000011110111 (
b1 )
b10111000000000000000011110111 ,
b110000110011100101000110000000 0
b0 1
#252000
0!
0"
0&
0*
0.
06
02
0:
#254000
1!
1"
1&
1*
1.
16
12
1:
b10110000000000000000111110111 $
b11001000000000000001011110111 (
b11000000000000000000011110111 ,
b1110000110011101001001101000010 0
0A
#256000
0!
0"
0&
0*
0.
06
02
0:
#258000
1!
1"
1&
1*
1.
16
12
1:
b100001000010110000000 $
b0 %
b10000010100101100101010000000 (
b0 )
b11001000000000000000111110111 ,
b10100000000000000001011110111 0
b1 1
1A
#260000
0!
0"
0&
0*
0.
06
02
0:
#262000
1!
1"
1&
1*
1.
16
12
1:
b10111000000000000000011110111 $
b1 %
b1010000010100110000110001000010 (
b100000100100101100111011000000 ,
b0 -
b110000110011110001000111000000 0
b0 1
#264000
0!
0"
0&
0*
0.
06
02
0:
#266000
1!
1"
1&
1*
1.
16
12
1:
b11000000000000000000011110111 $
b11010000000000000000011110111 (
b1 )
b11010000000000000001111110111 ,
b1 -
b1110000110011110101001110000010 0
0A
#268000
0!
0"
0&
0*
0.
06
02
0:
#270000
1!
1"
1&
1*
1.
16
12
1:
b11001000000000000000111110111 $
b11011000000000000000011110111 (
b100000100100111000111100000000 ,
b0 -
b10101000000000000000111110111 0
b1 1
1A
#272000
0!
0"
0&
0*
0.
06
02
0:
#274000
1!
1"
1&
1*
1.
16
12
1:
b100101100011001000000 $
b0 %
b11100000000000000000111110111 (
b1100000100100111101000011000010 ,
b110000110011111101001000000000 0
b0 1
#276000
0!
0"
0&
0*
0.
06
02
0:
#278000
1!
1"
1&
1*
1.
16
12
1:
b11010000000000000001011110111 $
b1 %
b10000010101010000101101000000 (
b0 )
b10100000100101000001001010000100 ,
b10110000000000000000011110111 0
b1 1
#280000
0!
0"
0&
0*
0.
06
02
0:
#282000
1!
1"
1&
1*
1.
16
12
1:
b100111000011010000000 $
b0 %
b11101000000000000000111110111 (
b1 )
b11011000000000000000011110111 ,
b1 -
b10111000000000000000111110111 0
#284000
0!
0"
0&
0*
0.
06
02
0:
#286000
1!
1"
1&
1*
1.
16
12
1:
b1000000000100111100100001000010 $
b10000010101011100101110000000 (
b0 )
b11100000000000000000111110111 ,
b110000110100010101001010000000 0
b0 1
#288000
0!
0"
0&
0*
0.
06
02
0:
#290000
1!
1"
1&
1*
1.
16
12
1:
b11011000000000000000011110111 $
b1 %
b11110000000000000000111110111 (
b1 )
b100000100101010000111110000000 ,
b0 -
b11000000000000000000111110111 0
b1 1
#292000
0!
0"
0&
0*
0.
06
02
0:
#294000
1!
1"
1&
1*
1.
16
12
1:
b11100000000000000001011110111 $
b10000010101101000101111000000 (
b0 )
b11101000000000000000011110111 ,
b1 -
b110000110100100001001011000000 0
b0 1
#296000
0!
0"
0&
0*
0.
06
02
0:
#298000
1!
1"
1&
1*
1.
16
12
1:
b101010000011100000000 $
b0 %
b11111000000000000000011110111 (
b1 )
b11110000000000000000011110111 ,
b11001000000000000000011110111 0
b1 1
#300000
0!
0"
0&
0*
0.
06
02
0:
#302000
1!
1"
1&
1*
1.
16
12
1:
b1000000000101010100100011000010 $
b100000000000000000000011110111 (
b11111000000000000000011110111 ,
b11010000000000000000111110111 0
0A
#304000
0!
0"
0&
0*
0.
06
02
0:
#306000
1!
1"
1&
1*
1.
16
12
1:
b11101000000000000000111110111 $
b1 %
b100001000000000000000011110111 (
b100000000000000000001011110111 ,
b110000110100111001001101000000 0
b0 1
1A
#308000
0!
0"
0&
0*
0.
06
02
0:
#310000
1!
1"
1&
1*
1.
16
12
1:
b101011100011101000000 $
b0 %
b100010000000000000000111110111 (
b100000100110000001000010000000 ,
b0 -
b11011000000000000000111110111 0
b1 1
#312000
0!
0"
0&
0*
0.
06
02
0:
#314000
1!
1"
1&
1*
1.
16
12
1:
b11110000000000000000011110111 $
b1 %
b10000010110011000110011000000 (
b0 )
b1100000100110000101001001000010 ,
b110000110101000101001110000000 0
b0 1
#316000
0!
0"
0&
0*
0.
06
02
0:
#318000
1!
1"
1&
1*
1.
16
12
1:
b11111000000000000000111110111 $
b100011000000000000000011110111 (
b1 )
b100001000000000000001111110111 ,
b1 -
b11100000000000000000011110111 0
b1 1
#320000
0!
0"
0&
0*
0.
06
02
0:
#322000
1!
1"
1&
1*
1.
16
12
1:
b101110100011111000000 $
b0 %
b100100000000000000000011110111 (
b100000100110001101000011000000 ,
b0 -
b11101000000000000000011110111 0
#324000
0!
0"
0&
0*
0.
06
02
0:
#326000
1!
1"
1&
1*
1.
16
12
1:
b100000000000000000000111110111 $
b1 %
b100101000000000000000111110111 (
b1100000100110010001001010000010 ,
b11110000000000000001011110111 0
#328000
0!
0"
0&
0*
0.
06
02
0:
#330000
1!
1"
1&
1*
1.
16
12
1:
b110000000100000000000 $
b0 %
b10000010110111100110110000000 (
b0 )
b10100000100110010101010001000100 ,
b110000110101101001010001000000 0
b0 1
#332000
0!
0"
0&
0*
0.
06
02
0:
#334000
1!
1"
1&
1*
1.
16
12
1:
b100001000000000000000011110111 $
b1 %
b100110000000000000000011110111 (
b1 )
b100010000000000000000011110111 ,
b1 -
b1110000110101101101011000000010 0
#336000
0!
0"
0&
0*
0.
06
02
0:
#338000
1!
1"
1&
1*
1.
16
12
1:
b100010000000000000000011110111 $
b100111000000000000000011110111 (
b100011000000000000001011110111 ,
b11111000000000000000111110111 0
b1 1
#340000
0!
0"
0&
0*
0.
06
02
0:
#342000
1!
1"
1&
1*
1.
16
12
1:
b100011000000000000001111110111 $
b101000000000000000000111110111 (
b100000100110100101000101000000 ,
b0 -
b110000110101110101010010000000 0
b0 1
#344000
0!
0"
0&
0*
0.
06
02
0:
#346000
1!
1"
1&
1*
1.
16
12
1:
b110100100100011000000 $
b0 %
b10000010111100000111001000000 (
b0 )
b1100000100110101001001100000010 ,
b100000000000000000000111110111 0
b1 1
#348000
0!
0"
0&
0*
0.
06
02
0:
#350000
1!
1"
1&
1*
1.
16
12
1:
b1000000000110101000101010000010 $
b101001000000000000000011110111 (
b1 )
b100100000000000000000111110111 ,
b1 -
b110000110110000001010011000000 0
b0 1
#352000
0!
0"
0&
0*
0.
06
02
0:
#354000
1!
1"
1&
1*
1.
16
12
1:
b10000000000110101100110001000100 $
b101010000000000000001011110111 (
b100000100110110001000110000000 ,
b0 -
b100001000000000000000111110111 0
b1 1
#356000
0!
0"
0&
0*
0.
06
02
0:
#358000
1!
1"
1&
1*
1.
16
12
1:
b100100000000000000000011110111 $
b1 %
b10000010111111000111011000000 (
b0 )
b100101000000000000000011110111 ,
b1 -
b110000110110001101010100000000 0
b0 1
0A
#360000
0!
0"
0&
0*
0.
06
02
0:
#362000
1!
1"
1&
1*
1.
16
12
1:
b100101000000000000000011110111 $
b1010000010111111101000010000010 (
b100110000000000000000011110111 ,
b100010000000000000000011110111 0
b1 1
1A
#364000
0!
0"
0&
0*
0.
06
02
0:
#366000
1!
1"
1&
1*
1.
16
12
1:
b100110000000000000001011110111 $
b101011000000000000000111110111 (
b1 )
b100111000000000000000011110111 ,
b100011000000000000000011110111 0
#368000
0!
0"
0&
0*
0.
06
02
0:
#370000
1!
1"
1&
1*
1.
16
12
1:
b111001000100110000000 $
b0 %
b10000011000000100111100000000 (
b0 )
b101000000000000000000011110111 ,
b100100000000000000000111110111 0
0A
#372000
0!
0"
0&
0*
0.
06
02
0:
#374000
1!
1"
1&
1*
1.
16
12
1:
b1000000000111001100101101000010 $
b101100000000000000000011110111 (
b1 )
b101001000000000000000011110111 ,
b110000110110110001010111000000 0
b0 1
1A
#376000
0!
0"
0&
0*
0.
06
02
0:
#378000
1!
1"
1&
1*
1.
16
12
1:
b100111000000000000001011110111 $
b1 %
b101101000000000000000011110111 (
b101010000000000000001011110111 ,
b100101000000000000001011110111 0
b1 1
0A
#380000
0!
0"
0&
0*
0.
06
02
0:
#382000
1!
1"
1&
1*
1.
16
12
1:
b111010100100111000000 $
b0 %
b101110000000000000001011110111 (
b100000100111111001001100000000 ,
b0 -
b110000110110111101011000000000 0
b0 1
1A
#384000
0!
0"
0&
0*
0.
06
02
0:
#386000
1!
1"
1&
1*
1.
16
12
1:
b1000000000111011000101110000010 $
b10000011000101000111111000000 (
b0 )
b1100000100111111101010011000010 ,
b1110000110111000001011111000010 0
#388000
0!
0"
0&
0*
0.
06
02
0:
#390000
1!
1"
1&
1*
1.
16
12
1:
b101000000000000000000111110111 $
b1 %
b1010000011000101101000110000010 (
b101011000000000000000011110111 ,
b1 -
b100110000000000000000011110111 0
b1 1
#392000
0!
0"
0&
0*
0.
06
02
0:
#394000
1!
1"
1&
1*
1.
16
12
1:
b111100000101000000000 $
b0 %
b101111000000000000000011110111 (
b1 )
b101100000000000000000011110111 ,
b100111000000000000001011110111 0
#396000
0!
0"
0&
0*
0.
06
02
0:
#398000
1!
1"
1&
1*
1.
16
12
1:
b101001000000000000000111110111 $
b1 %
b110000000000000000000011110111 (
b101101000000000000000011110111 ,
b110000110111010101011010000000 0
b0 1
#400000
0!
0"
0&
0*
0.
06
02
0:
#402000
1!
1"
1&
1*
1.
16
12
1:
b111101100101001000000 $
b0 %
b110001000000000000000011110111 (
b101110000000000000000011110111 ,
b1110000110111011001100001000010 0
0A
#404000
0!
0"
0&
0*
0.
06
02
0:
#406000
1!
1"
1&
1*
1.
16
12
1:
b101010000000000000000011110111 $
b1 %
b110010000000000000000011110111 (
b101111000000000000000111110111 ,
b101000000000000000000011110111 0
b1 1
#408000
0!
0"
0&
0*
0.
06
02
0:
#410000
1!
1"
1&
1*
1.
16
12
1:
b101011000000000000001011110111 $
b110011000000000000000011110111 (
b100000101000110101010001000000 ,
b0 -
b101001000000000000000011110111 0
1A
#412000
0!
0"
0&
0*
0.
06
02
0:
#414000
1!
1"
1&
1*
1.
16
12
1:
b1000000100101011000000 $
b0 %
b110100000000000000001011110111 (
b110000000000000000000111110111 ,
b1 -
b101010000000000000000011110111 0
#416000
0!
0"
0&
0*
0.
06
02
0:
#418000
1!
1"
1&
1*
1.
16
12
1:
b1000000001000001000110010000010 $
b10000011001110001000101000000 (
b0 )
b100000101001000001010010000000 ,
b0 -
b101011000000000000000111110111 0
#420000
0!
0"
0&
0*
0.
06
02
0:
#422000
1!
1"
1&
1*
1.
16
12
1:
b101100000000000000001011110111 $
b1 %
b1010000011001110101001100000010 (
b110001000000000000000011110111 ,
b1 -
b110000111000000101011110000000 0
b0 1
0A
#424000
0!
0"
0&
0*
0.
06
02
0:
#426000
1!
1"
1&
1*
1.
16
12
1:
b1000010000101100000000 $
b0 %
b110101000000000000000111110111 (
b1 )
b110010000000000000000111110111 ,
b101100000000000000000111110111 0
b1 1
1A
#428000
0!
0"
0&
0*
0.
06
02
0:
#430000
1!
1"
1&
1*
1.
16
12
1:
b1000000001000010100110011000010 $
b10000011001111101000110000000 (
b0 )
b100000101001011001010100000000 ,
b0 -
b110000111000010001011111000000 0
b0 1
#432000
0!
0"
0&
0*
0.
06
02
0:
#434000
1!
1"
1&
1*
1.
16
12
1:
b101101000000000000000011110111 $
b1 %
b110110000000000000000011110111 (
b1 )
b110011000000000000000011110111 ,
b1 -
b101101000000000000000011110111 0
b1 1
#436000
0!
0"
0&
0*
0.
06
02
0:
#438000
1!
1"
1&
1*
1.
16
12
1:
b101110000000000000001011110111 $
b110111000000000000000111110111 (
b110100000000000000000111110111 ,
b101110000000000000000111110111 0
0A
#440000
0!
0"
0&
0*
0.
06
02
0:
#442000
1!
1"
1&
1*
1.
16
12
1:
b1000101000101110000000 $
b0 %
b10000011010010101001000000000 (
b0 )
b100000101001110001010110000000 ,
b0 -
b110000111000101001100001000000 0
b0 1
1A
#444000
0!
0"
0&
0*
0.
06
02
0:
#446000
1!
1"
1&
1*
1.
16
12
1:
b1000000001000101100110101000010 $
b111000000000000000000111110111 (
b1 )
b110101000000000000000011110111 ,
b1 -
b101111000000000000001011110111 0
b1 1
#448000
0!
0"
0&
0*
0.
06
02
0:
#450000
1!
1"
1&
1*
1.
16
12
1:
b101111000000000000000111110111 $
b1 %
b10000011010100001001001000000 (
b0 )
b110110000000000000000011110111 ,
b110000111000110101100010000000 0
b0 1
#452000
0!
0"
0&
0*
0.
06
02
0:
#454000
1!
1"
1&
1*
1.
16
12
1:
b1000110100101111000000 $
b0 %
b111001000000000000000111110111 (
b1 )
b110111000000000000000111110111 ,
b1110000111000111001101001000010 0
0A
#456000
0!
0"
0&
0*
0.
06
02
0:
#458000
1!
1"
1&
1*
1.
16
12
1:
b110000000000000000000111110111 $
b1 %
b10000011010101101001010000000 (
b0 )
b100000101010010101011001000000 ,
b0 -
b110000000000000000000111110111 0
b1 1
1A
#460000
0!
0"
0&
0*
0.
06
02
0:
#462000
1!
1"
1&
1*
1.
16
12
1:
b1001000000110000000000 $
b0 %
b111010000000000000000011110111 (
b1 )
b111000000000000000000011110111 ,
b1 -
b110000111001000001100011000000 0
b0 1
#464000
0!
0"
0&
0*
0.
06
02
0:
#466000
1!
1"
1&
1*
1.
16
12
1:
b110001000000000000000111110111 $
b1 %
b111011000000000000000111110111 (
b111001000000000000000111110111 ,
b110001000000000000000011110111 0
b1 1
#468000
0!
0"
0&
0*
0.
06
02
0:
#470000
1!
1"
1&
1*
1.
16
12
1:
b1001001100110001000000 $
b0 %
b10000011011000101001100000000 (
b0 )
b100000101010101101011011000000 ,
b0 -
b110010000000000000000011110111 0
#472000
0!
0"
0&
0*
0.
06
02
0:
#474000
1!
1"
1&
1*
1.
16
12
1:
b110010000000000000000011110111 $
b1 %
b111100000000000000000011110111 (
b1 )
b111010000000000000001011110111 ,
b1 -
b110011000000000000001011110111 0
0A
#476000
0!
0"
0&
0*
0.
06
02
0:
#478000
1!
1"
1&
1*
1.
16
12
1:
b110011000000000000000011110111 $
b111101000000000000000011110111 (
b100000101010111001011100000000 ,
b0 -
b110000111001100101100110000000 0
b0 1
1A
#480000
0!
0"
0&
0*
0.
06
02
0:
#482000
1!
1"
1&
1*
1.
16
12
1:
b110100000000000000000111110111 $
b111110000000000000001011110111 (
b1100000101010111101100011000010 ,
b1110000111001101001101101000010 0
#484000
0!
0"
0&
0*
0.
06
02
0:
#486000
1!
1"
1&
1*
1.
16
12
1:
b1001110000110100000000 $
b0 %
b10000011011101001001111000000 (
b0 )
b111011000000000000000111110111 ,
b1 -
b110100000000000000000111110111 0
b1 1
#488000
0!
0"
0&
0*
0.
06
02
0:
#490000
1!
1"
1&
1*
1.
16
12
1:
b110101000000000000001011110111 $
b1 %
b1010000011011101101010110000010 (
b100000101011000101011101000000 ,
b0 -
b110000111001110001100111000000 0
b0 1
#492000
0!
0"
0&
0*
0.
06
02
0:
#494000
1!
1"
1&
1*
1.
16
12
1:
b1001111100110101000000 $
b0 %
b111111000000000000000011110111 (
b1 )
b111100000000000000000111110111 ,
b1 -
b110101000000000000000011110111 0
b1 1
#496000
0!
0"
0&
0*
0.
06
02
0:
#498000
1!
1"
1&
1*
1.
16
12
1:
b1000000001010000000111100000010 $
b1000000000000000000001011110111 (
b100000101011010001011110000000 ,
b0 -
b110110000000000000000011110111 0
#500000
0!
0"
0&
0*
0.
06
02
0:
#502000
1!
1"
1&
1*
1.
16
12
1:
b110110000000000000000011110111 $
b1 %
b10000011100000001010001000000 (
b0 )
b111101000000000000000011110111 ,
b1 -
b110111000000000000000111110111 0
0A
#504000
0!
0"
0&
0*
0.
06
02
0:
